<svg width="10" height="6" viewBox="0 0 10 6" fill="none" xmlns="http://www.w3.org/2000/svg">
<path fill-rule="evenodd" clip-rule="evenodd" d="M1.16667 -3.86117e-07L9.04056e-07 1.13513L5 6L10 1.13514L8.83333 6.19245e-07L5 3.72973L1.16667 -3.86117e-07Z" fill="#444444"/>
</svg>
