<svg width="6" height="10" viewBox="0 0 6 10" fill="none" xmlns="http://www.w3.org/2000/svg">
<path fill-rule="evenodd" clip-rule="evenodd" d="M-1.54447e-06 8.83333L1.13513 10L6 5L1.13514 1.98474e-07L4.66255e-07 1.16667L3.72973 5L-1.54447e-06 8.83333Z" fill="white"/>
</svg>
