<svg width="23" height="20" viewBox="0 0 23 20" fill="none" xmlns="http://www.w3.org/2000/svg">
<path d="M22.8101 6.93586C22.6375 6.71329 22.3706 6.5823 22.0879 6.5823H19.424L15.8877 0.455941C15.6367 0.0199035 15.0792 -0.128678 14.6421 0.121179C14.2056 0.371643 14.0561 0.927758 14.3071 1.3638L17.3194 6.58169H5.68074L8.69299 1.3638C8.94406 0.927758 8.79451 0.371643 8.35803 0.121179C7.92093 -0.128678 7.36408 0.0199035 7.1124 0.455941L3.57612 6.5823H0.91221C0.629527 6.5823 0.363258 6.71329 0.190001 6.93586C0.0173511 7.15903 -0.0416172 7.44952 0.0295096 7.72242L3.06911 19.3208C3.17428 19.7204 3.53661 20 3.95121 20H19.0483C19.4635 20 19.8252 19.7204 19.9304 19.3208L22.97 7.72242C23.0417 7.44952 22.9834 7.15903 22.8101 6.93586ZM18.3449 18.1807H4.65579L2.09279 8.40165H20.9073L18.3449 18.1807Z" fill="white"/>
</svg>
