<svg width="20" height="20" viewBox="0 0 20 20" fill="none" xmlns="http://www.w3.org/2000/svg">
<path d="M6 14.8097C5.99928 14.1883 5.78591 13.5841 5.39224 13.0887C4.99858 12.5933 4.44609 12.2337 3.81856 12.0645V0.777994C3.81856 0.675826 3.79744 0.574659 3.7564 0.480268C3.71536 0.385878 3.65521 0.300112 3.57939 0.227869C3.50356 0.155626 3.41354 0.0983192 3.31447 0.0592213C3.2154 0.0201235 3.10921 0 3.00198 0C2.89474 0 2.78856 0.0201235 2.68948 0.0592213C2.59041 0.0983192 2.50039 0.155626 2.42457 0.227869C2.34874 0.300112 2.28859 0.385878 2.24755 0.480268C2.20652 0.574659 2.1854 0.675826 2.1854 0.777994V12.0645C1.55664 12.2322 1.00273 12.5913 0.608151 13.0869C0.213576 13.5826 0 14.1876 0 14.8097C0 15.4318 0.213576 16.0368 0.608151 16.5324C1.00273 17.0281 1.55664 17.3871 2.1854 17.5549V19.222C2.1854 19.4283 2.27143 19.6262 2.42457 19.7721C2.57771 19.918 2.78541 20 3.00198 20C3.21855 20 3.42625 19.918 3.57939 19.7721C3.73253 19.6262 3.81856 19.4283 3.81856 19.222V17.5549C4.44609 17.3856 4.99858 17.026 5.39224 16.5306C5.78591 16.0352 5.99928 15.431 6 14.8097ZM3.00198 16.1156C2.73203 16.1156 2.46815 16.0393 2.2437 15.8964C2.01925 15.7536 1.84432 15.5505 1.74101 15.3129C1.63771 15.0752 1.61068 14.8138 1.66334 14.5615C1.71601 14.3093 1.846 14.0776 2.03688 13.8957C2.22776 13.7139 2.47095 13.59 2.73571 13.5399C3.00046 13.4897 3.27489 13.5154 3.52429 13.6138C3.77368 13.7123 3.98684 13.8789 4.13682 14.0928C4.28679 14.3066 4.36684 14.558 4.36684 14.8152C4.36684 15.1601 4.22304 15.4909 3.96708 15.7347C3.71112 15.9786 3.36396 16.1156 3.00198 16.1156Z" fill="#222222"/>
<path d="M20 14.8097C19.9994 14.1883 19.8216 13.5841 19.4935 13.0887C19.1655 12.5933 18.7051 12.2337 18.1821 12.0645V0.777994C18.1821 0.571657 18.1104 0.373771 17.9828 0.227869C17.8552 0.0819669 17.6821 0 17.5016 0C17.3212 0 17.1481 0.0819669 17.0205 0.227869C16.8929 0.373771 16.8212 0.571657 16.8212 0.777994V12.0645C16.2972 12.2322 15.8356 12.5913 15.5068 13.0869C15.178 13.5826 15 14.1876 15 14.8097C15 15.4318 15.178 16.0368 15.5068 16.5324C15.8356 17.0281 16.2972 17.3871 16.8212 17.5549V19.222C16.8212 19.4283 16.8929 19.6262 17.0205 19.7721C17.1481 19.918 17.3212 20 17.5016 20C17.6821 20 17.8552 19.918 17.9828 19.7721C18.1104 19.6262 18.1821 19.4283 18.1821 19.222V17.5549C18.7051 17.3856 19.1655 17.026 19.4935 16.5306C19.8216 16.0352 19.9994 15.431 20 14.8097ZM17.5016 16.1156C17.2767 16.1156 17.0568 16.0393 16.8698 15.8964C16.6827 15.7536 16.5369 15.5505 16.4508 15.3129C16.3648 15.0752 16.3422 14.8138 16.3861 14.5615C16.43 14.3093 16.5383 14.0776 16.6974 13.8957C16.8565 13.7139 17.0591 13.59 17.2798 13.5399C17.5004 13.4897 17.7291 13.5154 17.9369 13.6138C18.1447 13.7123 18.3224 13.8789 18.4473 14.0928C18.5723 14.3066 18.639 14.558 18.639 14.8152C18.639 14.986 18.6096 15.1551 18.5525 15.3129C18.4953 15.4706 18.4115 15.614 18.3059 15.7347C18.2003 15.8555 18.0749 15.9513 17.9369 16.0166C17.7989 16.082 17.651 16.1156 17.5016 16.1156Z" fill="#222222"/>
<path d="M7 5.19033C7.00072 5.8117 7.21409 6.4159 7.60776 6.9113C8.00142 7.4067 8.55391 7.76629 9.18144 7.93554V19.222C9.18144 19.4283 9.26747 19.6262 9.42061 19.7721C9.57375 19.918 9.78145 20 9.99802 20C10.2146 20 10.4223 19.918 10.5754 19.7721C10.7286 19.6262 10.8146 19.4283 10.8146 19.222V7.93554C11.4434 7.7678 11.9973 7.40872 12.3918 6.91308C12.7864 6.41743 13 5.81242 13 5.19033C13 4.56825 12.7864 3.96323 12.3918 3.46759C11.9973 2.97194 11.4434 2.61286 10.8146 2.44512V0.777994C10.8146 0.571657 10.7286 0.373771 10.5754 0.227869C10.4223 0.0819669 10.2146 0 9.99802 0C9.78145 0 9.57375 0.0819669 9.42061 0.227869C9.26747 0.373771 9.18144 0.571657 9.18144 0.777994V2.44512C8.55391 2.61437 8.00142 2.97396 7.60776 3.46936C7.21409 3.96477 7.00072 4.56896 7 5.19033ZM9.99802 3.88441C10.268 3.88441 10.5318 3.96068 10.7563 4.10356C10.9807 4.24645 11.1557 4.44954 11.259 4.68715C11.3623 4.92476 11.3893 5.18622 11.3367 5.43846C11.284 5.69071 11.154 5.92241 10.9631 6.10427C10.7722 6.28613 10.529 6.40997 10.2643 6.46015C9.99954 6.51032 9.72511 6.48457 9.47571 6.38615C9.22632 6.28773 9.01316 6.12106 8.86318 5.90722C8.71321 5.69337 8.63316 5.44196 8.63316 5.18477C8.63316 4.8399 8.77696 4.50914 9.03292 4.26528C9.28888 4.02141 9.63604 3.88441 9.99802 3.88441Z" fill="#222222"/>
</svg>
