<svg width="141" height="150" viewBox="0 0 141 150" fill="none" xmlns="http://www.w3.org/2000/svg">
<path fill-rule="evenodd" clip-rule="evenodd" d="M79.1372 10.7125C85.8965 15.9405 89 21.1184 89 21.1184C89 21.1184 92.1035 15.9405 98.8627 10.7125C105.754 5.3823 116.445 0 131.522 0C156.838 0 178 21.1184 178 46.1842C178 103.816 89 150 89 150C89 150 0 103.816 0 46.1842C0 21.1184 21.1622 0 46.4778 0C61.5545 0 72.2459 5.3823 79.1372 10.7125Z" fill="#E5E5E5"/>
</svg>
