<svg width="158" height="206" viewBox="0 0 158 206" fill="none" xmlns="http://www.w3.org/2000/svg">
<mask id="mask0" mask-type="alpha" maskUnits="userSpaceOnUse" x="0" y="0" width="158" height="206">
<rect width="158" height="206" fill="#C4C4C4"/>
</mask>
<g mask="url(#mask0)">
<path fill-rule="evenodd" clip-rule="evenodd" d="M75.3274 114.231C74.9627 114.232 74.5996 114.278 74.2466 114.369C36.9812 124.065 11.0315 152.023 11 184.21C10.9995 184.778 11.1118 185.34 11.3306 185.865C11.5493 186.39 11.8702 186.867 12.2748 187.269C12.6795 187.671 13.1599 187.989 13.6888 188.207C14.2177 188.424 14.7846 188.536 15.3571 188.536H189.643C190.216 188.536 190.783 188.424 191.312 188.206C191.841 187.989 192.322 187.67 192.727 187.267C193.131 186.865 193.452 186.388 193.671 185.862C193.889 185.337 194.001 184.774 194 184.206C193.948 152.022 167.983 124.077 130.715 114.395C130.044 114.221 129.34 114.208 128.663 114.357C127.986 114.507 127.355 114.815 126.822 115.256L102.5 135.365L78.1442 115.23C77.3537 114.578 76.3559 114.224 75.3274 114.231Z" fill="#E6E6E6"/>
<path fill-rule="evenodd" clip-rule="evenodd" d="M102.484 7C73.6587 7 50.2012 30.2698 50.2012 58.8642C50.2012 87.4586 73.6587 110.728 102.484 110.728C131.309 110.728 154.782 87.4586 154.782 58.8642C154.782 30.2698 131.309 7 102.484 7Z" fill="#E6E6E6"/>
</g>
</svg>
