<svg width="103" height="28" viewBox="0 0 103 28" fill="none" xmlns="http://www.w3.org/2000/svg">
<g clip-path="url(#clip0)">
<path d="M18.1032 16.0744C18.1025 16.0742 8.98155 13.9765 8.98155 13.9765C6.26293 13.3512 4.55752 10.6044 5.17257 7.84118C5.78797 5.078 8.49069 3.34512 11.2093 3.9702C13.9281 4.59551 15.6333 7.34231 15.0182 10.1053C14.7101 11.4887 13.8786 12.6128 12.7839 13.3132C12.7837 13.3132 12.781 13.3154 12.78 13.316C12.7478 13.3395 12.727 13.3777 12.727 13.4207C12.727 13.481 12.7679 13.5316 12.8232 13.5451C12.8234 13.5453 16.8808 14.4778 16.8815 14.4778C16.978 14.5001 17.0782 14.4622 17.1376 14.3825C17.1379 14.3818 17.1378 14.3824 17.1378 14.3824C18.2555 12.8791 18.927 11.0035 18.927 8.97475C18.927 4.19709 15.2543 0.292652 10.6217 0.0153389C10.5804 0.0130177 10.3294 0.00304985 10.2446 0.00182152C8.19347 -0.0309029 6.11385 0.566824 4.30542 1.854C-0.261529 5.10394 -1.37112 11.5009 1.82629 16.1423L9.9412 27.9209C9.97586 27.9689 10.0317 28 10.0943 28C10.1574 28 10.2134 27.9684 10.2479 27.92C10.2479 27.92 18.2165 16.3704 18.2172 16.3693C18.2375 16.3387 18.2496 16.3016 18.2496 16.2618C18.2496 16.1704 18.1872 16.0939 18.1032 16.0744Z" fill="#FABC26"/>
<path d="M25.9096 5.51529C26.0072 5.51529 26.0719 5.54815 26.1043 5.6141L28.8101 10.307H28.9396L31.2405 5.67973C31.2889 5.56435 31.3864 5.51529 31.516 5.51529H33.1686C33.3145 5.51529 33.3953 5.66353 33.3304 5.77858L28.5668 14.3417C28.5184 14.4404 28.4213 14.49 28.2914 14.49H26.6712C26.493 14.49 26.4769 14.3746 26.5418 14.2429L27.8216 12.0196L23.9979 5.72934C23.9328 5.6141 23.9816 5.51529 24.095 5.51529H25.9096Z" fill="#2C2E2C"/>
<path d="M36.1758 5.51529C36.3217 5.51529 36.4027 5.59739 36.4027 5.74568V9.26748L40.0487 5.64682C40.1458 5.56435 40.2915 5.51529 40.4697 5.51529H42.4465C42.5923 5.51529 42.6411 5.64682 42.5274 5.7622L38.6548 9.45095L42.7706 14.2429C42.8839 14.3579 42.8194 14.49 42.6735 14.49H40.7291C40.5509 14.49 40.4214 14.4404 40.3238 14.325L37.2405 10.6286L36.4027 11.4205V14.2592C36.4027 14.4075 36.3217 14.49 36.1758 14.49H34.7501C34.6042 14.49 34.5234 14.4075 34.5234 14.2592V5.74568C34.5234 5.59739 34.6042 5.51529 34.7501 5.51529H36.1758Z" fill="#2C2E2C"/>
<path d="M48.1435 10.2906C49.1318 10.2906 49.6988 9.66493 49.6988 8.79221C49.6988 7.93578 49.1318 7.32667 48.1435 7.32667H45.7937V10.2906H48.1435ZM48.1435 5.51504C50.1036 5.51504 51.5778 6.94763 51.5778 8.79221C51.5778 10.7023 50.1036 12.1021 48.1435 12.1021H45.7937V14.2592C45.7937 14.4073 45.7127 14.4897 45.5671 14.4897H44.141C43.9953 14.4897 43.9141 14.4073 43.9141 14.2592V5.74562C43.9141 5.59733 43.9953 5.51504 44.141 5.51504H48.1435Z" fill="#2C2E2C"/>
<path d="M60.436 5.51529C60.5816 5.51529 60.6631 5.59739 60.6631 5.74568V14.2592C60.6631 14.4075 60.5816 14.49 60.436 14.49H59.0097C58.8646 14.49 58.7831 14.4075 58.7831 14.2592V7.31003H54.8619V14.2592C54.8619 14.4075 54.7809 14.49 54.6353 14.49H53.2095C53.0635 14.49 52.9824 14.4075 52.9824 14.2592V5.74568C52.9824 5.59739 53.0635 5.51529 53.2095 5.51529H60.436Z" fill="#2C2E2C"/>
<path d="M64.2316 10.0106C64.2316 11.6409 65.3655 12.8263 66.9857 12.8263C68.5903 12.8263 69.7246 11.6409 69.7246 10.0106C69.7246 8.34743 68.5903 7.17832 66.9857 7.17832C65.3655 7.17832 64.2316 8.34743 64.2316 10.0106ZM66.9857 5.38318C69.5298 5.38318 71.6202 7.37581 71.6202 10.0106C71.6202 12.6618 69.5298 14.6216 66.9857 14.6216C64.4259 14.6216 62.3359 12.6618 62.3359 10.0106C62.3359 7.37581 64.4259 5.38318 66.9857 5.38318Z" fill="#2C2E2C"/>
<path d="M77.9109 12.6951V5.7455C77.9109 5.59758 77.9916 5.51529 78.138 5.51529H79.5312C79.6772 5.51529 79.7582 5.59758 79.7582 5.7455V12.6951H82.5289V5.7455C82.5289 5.59758 82.6095 5.51529 82.7555 5.51529H84.1492C84.2952 5.51529 84.3758 5.59758 84.3758 5.7455V14.2592C84.3758 14.4075 84.2952 14.49 84.1492 14.49H73.52C73.4067 14.49 73.293 14.4075 73.293 14.2592V5.7455C73.293 5.59758 73.3736 5.51529 73.52 5.51529H74.9132C75.0592 5.51529 75.1403 5.59758 75.1403 5.7455V12.6951H77.9109Z" fill="#2C2E2C"/>
<path d="M93.3784 5.51529C93.5235 5.51529 93.605 5.59739 93.605 5.74568V7.09598C93.605 7.24426 93.5235 7.32641 93.3784 7.32641H90.5589V14.2592C90.5589 14.4075 90.4774 14.49 90.3319 14.49H88.906C88.7604 14.49 88.6794 14.4075 88.6794 14.2592V7.32641H85.8599C85.7143 7.32641 85.6328 7.24426 85.6328 7.09598V5.74568C85.6328 5.59739 85.7143 5.51529 85.8599 5.51529H93.3784Z" fill="#2C2E2C"/>
<path d="M96.5857 10.9824H99.6641L98.2387 7.29381H98.0604L96.5857 10.9824ZM100.313 12.7113H95.9051L95.2897 14.292C95.2414 14.424 95.1442 14.4897 95.0143 14.4897H93.4102C93.2485 14.4897 93.1997 14.4073 93.2485 14.2592L97.0721 5.64694C97.1043 5.56447 97.1693 5.51504 97.283 5.51504H99.1298C99.2431 5.51504 99.3081 5.56447 99.3403 5.64694L102.986 14.2261C103.035 14.3582 102.954 14.4897 102.808 14.4897H101.269C101.107 14.4897 100.993 14.4073 100.928 14.2592L100.313 12.7113Z" fill="#2C2E2C"/>
<path d="M25.2461 22.1843V18.3411H27.734V18.7838H25.7459V22.1843H25.2461Z" fill="#617171"/>
<path d="M28.9605 20.2574C28.9605 21.2183 29.4761 21.839 30.2788 21.839C31.0709 21.839 31.5865 21.2126 31.5865 20.2574C31.5865 19.3074 31.0709 18.6921 30.2681 18.6921C29.3751 18.6921 28.9605 19.4368 28.9605 20.2574ZM32.0864 20.2303C32.0864 21.3587 31.475 22.2761 30.2736 22.2761C29.0617 22.2761 28.4609 21.3369 28.4609 20.2195C28.4609 19.0215 29.1678 18.2494 30.2681 18.2494C31.443 18.2494 32.0864 19.0859 32.0864 20.2303Z" fill="#617171"/>
<path d="M35.9978 22.1843H35.4982V18.7838H34.1001L34.0258 20.9481C33.9992 21.7203 33.7226 22.2654 33.1487 22.2654C33.0421 22.2654 32.8828 22.2275 32.7871 22.1896V21.7578C32.8564 21.8012 32.9998 21.812 33.0581 21.812C33.3292 21.812 33.5262 21.6607 33.5526 20.6836L33.6217 18.3411H35.9978V22.1843Z" fill="#617171"/>
<path d="M37.6757 20.2574C37.6757 21.2183 38.1913 21.839 38.994 21.839C39.786 21.839 40.3016 21.2126 40.3016 20.2574C40.3016 19.3074 39.786 18.6921 38.9834 18.6921C38.0903 18.6921 37.6757 19.4368 37.6757 20.2574ZM40.8012 20.2303C40.8012 21.3587 40.1902 22.2761 38.9888 22.2761C37.7767 22.2761 37.1758 21.3369 37.1758 20.2195C37.1758 19.0215 37.883 18.2494 38.9834 18.2494C40.1582 18.2494 40.8012 19.0859 40.8012 20.2303Z" fill="#617171"/>
<path d="M42.4675 21.7578H43.467C43.9719 21.7578 44.4662 21.7256 44.4662 21.0509C44.4662 20.3815 43.8868 20.3869 43.382 20.3869H42.4675V21.7578ZM42.4675 19.9874H43.3659C43.7912 19.9874 44.3016 19.955 44.3016 19.3776C44.3016 18.7997 43.8601 18.7729 43.4138 18.7729H42.4675V19.9874ZM43.5945 18.3411C44.2219 18.3411 44.8009 18.5949 44.8009 19.3019C44.8009 19.6796 44.5832 20.0037 44.243 20.1277C44.7108 20.2359 44.9711 20.5918 44.9711 21.0995C44.9711 21.9847 44.2589 22.1843 43.5361 22.1843H41.9785V18.3411H43.5945Z" fill="#617171"/>
<path d="M49.1623 22.1843H48.6625V20.3869H46.6638V22.1843H46.1641V18.3411H46.6638V19.944H48.6625V18.3411H49.1623V22.1843Z" fill="#617171"/>
<path d="M51.9529 18.8268L51.299 20.6029H52.5964L51.9529 18.8268ZM53.7231 22.1843H53.1651L52.7451 21.0077H51.1557L50.7254 22.1843H50.1934L51.6819 18.3411H52.2453L53.7231 22.1843Z" fill="#617171"/>
<path d="M59.8849 22.1843H59.3851V18.7838H57.3865V22.1843H56.8867V18.3411H59.8849V22.1843Z" fill="#617171"/>
<path d="M61.5681 20.2574C61.5681 21.2183 62.0836 21.839 62.8861 21.839C63.6783 21.839 64.1937 21.2126 64.1937 20.2574C64.1937 19.3074 63.6783 18.6921 62.8758 18.6921C61.9824 18.6921 61.5681 19.4368 61.5681 20.2574ZM64.6935 20.2303C64.6935 21.3587 64.0822 22.2761 62.8812 22.2761C61.6689 22.2761 61.0684 21.3369 61.0684 20.2195C61.0684 19.0215 61.775 18.2494 62.8758 18.2494C64.0504 18.2494 64.6935 19.0859 64.6935 20.2303Z" fill="#617171"/>
<path d="M65.8711 18.3411H66.3709V21.7418H68.0507V18.3411H68.55V21.7418H70.2298V18.3411H70.7296V22.1843H65.8711V18.3411Z" fill="#617171"/>
<path d="M74.8337 18.7838H73.5632V22.1843H73.0635V18.7838H71.793V18.3411H74.8337V18.7838Z" fill="#617171"/>
<path d="M76.7693 18.8268L76.1159 20.6029H77.4128L76.7693 18.8268ZM78.54 22.1843H77.9815L77.5615 21.0077H75.9721L75.5418 22.1843H75.0098L76.4983 18.3411H77.0617L78.54 22.1843Z" fill="#617171"/>
<path d="M83.179 19.885L84.8373 22.1843H84.1996L82.8279 20.2302L82.2009 20.8351V22.1843H81.7012V18.3411H82.2009V20.2466L84.1199 18.3411H84.7737L83.179 19.885Z" fill="#617171"/>
<path d="M86.3924 20.1817H87.3543C87.8384 20.1817 88.2105 20.0468 88.2105 19.4802C88.2105 18.8647 87.7797 18.7783 87.2853 18.7783H86.3924V20.1817ZM87.4501 18.3411C88.1734 18.3411 88.7099 18.6486 88.7099 19.4476C88.7099 20.3168 88.1572 20.6082 87.4183 20.6082H86.3924V22.1843H85.8926V18.3411H87.4501Z" fill="#617171"/>
<path d="M90.9216 18.8268L90.2678 20.6029H91.5647L90.9216 18.8268ZM92.6919 22.1843H92.1339L91.7138 21.0077H90.1245L89.6937 22.1843H89.1621L90.6502 18.3411H91.2141L92.6919 22.1843Z" fill="#617171"/>
<path d="M94.7254 18.0118H94.2467V17.4667H94.7254V18.0118ZM94.231 22.1843H93.7312V18.3411H94.231V22.1843ZM93.7205 18.0118H93.2422V17.4667H93.7205V18.0118Z" fill="#617171"/>
<path d="M98.613 22.1843H98.1137V20.3869H96.115V22.1843H95.6152V18.3411H96.115V19.944H98.1137V18.3411H98.613V22.1843Z" fill="#617171"/>
<path d="M99.9883 18.3411H100.488V21.596H100.498L102.354 18.3411H102.986V22.1843H102.487V18.9185H102.476L100.615 22.1843H99.9883V18.3411Z" fill="#617171"/>
</g>
<defs>
<clipPath id="clip0">
<rect width="103" height="28" fill="white"/>
</clipPath>
</defs>
</svg>
