<svg width="30" height="20" viewBox="0 0 30 20" fill="none" xmlns="http://www.w3.org/2000/svg">
<path d="M28.4683 3.7042C28.1442 2.53947 27.1942 1.62133 25.9895 1.3077C23.7887 0.725586 14.985 0.725586 14.985 0.725586C14.985 0.725586 6.1817 0.725586 3.98083 1.28563C2.79928 1.59892 1.82613 2.53963 1.50204 3.7042C0.922852 5.83154 0.922852 10.2434 0.922852 10.2434C0.922852 10.2434 0.922852 14.6774 1.50204 16.7825C1.82648 17.9471 2.77611 18.8652 3.981 19.1789C6.20487 19.7611 14.9853 19.7611 14.9853 19.7611C14.9853 19.7611 23.7887 19.7611 25.9895 19.2011C27.1944 18.8876 28.1442 17.9695 28.4687 16.8049C29.0477 14.6774 29.0477 10.2658 29.0477 10.2658C29.0477 10.2658 29.0709 5.83154 28.4683 3.7042ZM12.1821 14.3192V6.16757L19.5028 10.2434L12.1821 14.3192Z" fill="#666666"/>
</svg>
