<svg width="229" height="37" viewBox="0 0 229 37" fill="none" xmlns="http://www.w3.org/2000/svg">
<path d="M0 10.6406V15.9609H7.21875V30.7031H0V36H20.6719V30.7031H13.8047V10.6406H0Z" fill="white"/>
<path d="M24.2137 36H30.7528V17.9766C30.9716 17.6328 31.2137 17.3203 31.4794 17.0391C31.745 16.7578 32.0419 16.5156 32.37 16.3125C32.7762 16.0312 33.2372 15.8203 33.7528 15.6797C34.2841 15.5391 34.8622 15.4688 35.4872 15.4688C36.2372 15.4688 36.9091 15.5469 37.5028 15.7031C38.0966 15.8438 38.6044 16.1016 39.0262 16.4766C39.4481 16.8516 39.7684 17.3672 39.9872 18.0234C40.2216 18.6641 40.3387 19.4844 40.3387 20.4844V36H46.8544V20.3906C46.8544 18.5469 46.6356 16.9844 46.1981 15.7031C45.7762 14.4062 45.1825 13.3438 44.4169 12.5156C43.6356 11.7031 42.7137 11.1094 41.6512 10.7344C40.5887 10.3594 39.4169 10.1719 38.1356 10.1719C37.1356 10.1719 36.1903 10.3125 35.2997 10.5938C34.4091 10.875 33.5887 11.2812 32.8387 11.8125C32.4012 12.125 31.9872 12.4766 31.5966 12.8672C31.2059 13.2578 30.8466 13.6875 30.5184 14.1562L30.12 10.6406H24.2137V36Z" fill="white"/>
<path d="M62.115 4.42969H55.5994V10.6406H49.8103V15.4453H55.5994V26.9766C55.5994 28.6484 55.8181 30.0859 56.2556 31.2891C56.6931 32.4766 57.3181 33.4531 58.1306 34.2188C58.9275 35 59.8884 35.5781 61.0134 35.9531C62.1541 36.3125 63.4197 36.4922 64.8103 36.4922C65.5291 36.4922 66.2556 36.4531 66.99 36.375C67.74 36.3125 68.4587 36.2188 69.1462 36.0938C69.8337 35.9688 70.4822 35.8125 71.0916 35.625C71.7009 35.4219 72.2322 35.1875 72.6853 34.9219L72.0525 30.4453C71.7556 30.5234 71.3962 30.6016 70.9744 30.6797C70.5681 30.7578 70.1306 30.8281 69.6619 30.8906C69.1775 30.9688 68.6697 31.0312 68.1384 31.0781C67.6228 31.125 67.115 31.1484 66.615 31.1484C65.9275 31.1484 65.3025 31.0703 64.74 30.9141C64.1931 30.7578 63.7244 30.4922 63.3337 30.1172C62.9431 29.7578 62.6384 29.2734 62.4197 28.6641C62.2166 28.0391 62.115 27.2656 62.115 26.3438V15.4453H71.5837V10.6406H62.115V4.42969Z" fill="white"/>
<path d="M88.4147 36.4688C90.8678 36.4688 92.9928 35.9922 94.7897 35.0391C96.5866 34.0859 97.8991 33.0234 98.7272 31.8516L95.4694 28.3359C94.7194 29.3047 93.7428 30.0312 92.5397 30.5156C91.3366 31 90.0944 31.2422 88.8131 31.2422C87.9069 31.2422 87.0709 31.1016 86.3053 30.8203C85.5397 30.5391 84.86 30.1406 84.2663 29.625C83.6881 29.125 83.2272 28.5703 82.8834 27.9609C82.5397 27.3359 82.2584 26.5156 82.0397 25.5V25.4297H99.2428V22.6641C99.2428 20.8047 98.985 19.1094 98.4694 17.5781C97.9538 16.0312 97.2038 14.7109 96.2194 13.6172C95.2194 12.5234 94.0006 11.6797 92.5631 11.0859C91.1413 10.4766 89.5163 10.1719 87.6881 10.1719C85.9225 10.1719 84.2897 10.4922 82.7897 11.1328C81.2897 11.7734 79.9928 12.6719 78.8991 13.8281C77.8053 14.9844 76.9538 16.3672 76.3444 17.9766C75.735 19.5703 75.4303 21.3359 75.4303 23.2734V24.2109C75.4303 25.9141 75.735 27.5156 76.3444 29.0156C76.9694 30.5 77.8522 31.7891 78.9928 32.8828C80.1334 33.9922 81.5006 34.8672 83.0944 35.5078C84.6881 36.1484 86.4616 36.4688 88.4147 36.4688ZM87.6413 15.4453C88.4694 15.4453 89.1959 15.5781 89.8209 15.8438C90.4616 16.0938 91.0006 16.4375 91.4381 16.875C91.8756 17.3281 92.2194 17.8594 92.4694 18.4688C92.7194 19.0781 92.8444 19.7266 92.8444 20.4141V20.9297H82.1569C82.3131 20.1016 82.5475 19.3516 82.86 18.6797C83.1725 18.0078 83.5631 17.4297 84.0319 16.9453C84.485 16.4609 85.0163 16.0938 85.6256 15.8438C86.235 15.5781 86.9069 15.4453 87.6413 15.4453Z" fill="white"/>
<path d="M120.269 10.1719C118.566 10.1719 116.996 10.5859 115.558 11.4141C114.121 12.2266 112.886 13.3516 111.855 14.7891L111.808 14.2266L111.55 10.6406H105.48V36H111.996V20.7656C112.292 20.0469 112.667 19.4219 113.121 18.8906C113.574 18.3594 114.121 17.9219 114.761 17.5781C115.292 17.2812 115.894 17.0625 116.566 16.9219C117.253 16.7656 118.019 16.6875 118.863 16.6875C119.675 16.6875 120.527 16.7422 121.417 16.8516C122.324 16.9453 123.207 17.0938 124.066 17.2969L125.027 10.8047C124.511 10.6484 123.832 10.5078 122.988 10.3828C122.16 10.2422 121.253 10.1719 120.269 10.1719Z" fill="white"/>
<path d="M139.959 4.42969H133.444V10.6406H127.655V15.4453H133.444V26.9766C133.444 28.6484 133.662 30.0859 134.1 31.2891C134.537 32.4766 135.162 33.4531 135.975 34.2188C136.772 35 137.733 35.5781 138.858 35.9531C139.998 36.3125 141.264 36.4922 142.655 36.4922C143.373 36.4922 144.1 36.4531 144.834 36.375C145.584 36.3125 146.303 36.2188 146.991 36.0938C147.678 35.9688 148.327 35.8125 148.936 35.625C149.545 35.4219 150.077 35.1875 150.53 34.9219L149.897 30.4453C149.6 30.5234 149.241 30.6016 148.819 30.6797C148.412 30.7578 147.975 30.8281 147.506 30.8906C147.022 30.9688 146.514 31.0312 145.983 31.0781C145.467 31.125 144.959 31.1484 144.459 31.1484C143.772 31.1484 143.147 31.0703 142.584 30.9141C142.037 30.7578 141.569 30.4922 141.178 30.1172C140.787 29.7578 140.483 29.2734 140.264 28.6641C140.061 28.0391 139.959 27.2656 139.959 26.3438V15.4453H149.428V10.6406H139.959V4.42969Z" fill="#31CAFF"/>
<path d="M166.259 36.4688C168.712 36.4688 170.837 35.9922 172.634 35.0391C174.431 34.0859 175.743 33.0234 176.572 31.8516L173.314 28.3359C172.564 29.3047 171.587 30.0312 170.384 30.5156C169.181 31 167.939 31.2422 166.657 31.2422C165.751 31.2422 164.915 31.1016 164.15 30.8203C163.384 30.5391 162.704 30.1406 162.111 29.625C161.532 29.125 161.072 28.5703 160.728 27.9609C160.384 27.3359 160.103 26.5156 159.884 25.5V25.4297H177.087V22.6641C177.087 20.8047 176.829 19.1094 176.314 17.5781C175.798 16.0312 175.048 14.7109 174.064 13.6172C173.064 12.5234 171.845 11.6797 170.407 11.0859C168.986 10.4766 167.361 10.1719 165.532 10.1719C163.767 10.1719 162.134 10.4922 160.634 11.1328C159.134 11.7734 157.837 12.6719 156.743 13.8281C155.65 14.9844 154.798 16.3672 154.189 17.9766C153.579 19.5703 153.275 21.3359 153.275 23.2734V24.2109C153.275 25.9141 153.579 27.5156 154.189 29.0156C154.814 30.5 155.697 31.7891 156.837 32.8828C157.978 33.9922 159.345 34.8672 160.939 35.5078C162.532 36.1484 164.306 36.4688 166.259 36.4688ZM165.486 15.4453C166.314 15.4453 167.04 15.5781 167.665 15.8438C168.306 16.0938 168.845 16.4375 169.282 16.875C169.72 17.3281 170.064 17.8594 170.314 18.4688C170.564 19.0781 170.689 19.7266 170.689 20.4141V20.9297H160.001C160.157 20.1016 160.392 19.3516 160.704 18.6797C161.017 18.0078 161.407 17.4297 161.876 16.9453C162.329 16.4609 162.861 16.0938 163.47 15.8438C164.079 15.5781 164.751 15.4453 165.486 15.4453Z" fill="#31CAFF"/>
<path d="M191.129 31.2656C190.082 31.2656 189.215 31.0547 188.527 30.6328C187.856 30.2109 187.324 29.6484 186.934 28.9453C186.527 28.2578 186.246 27.4609 186.09 26.5547C185.934 25.6328 185.856 24.6797 185.856 23.6953V22.9922C185.856 22.0234 185.934 21.0859 186.09 20.1797C186.262 19.2734 186.551 18.4688 186.957 17.7656C187.348 17.0625 187.879 16.5 188.551 16.0781C189.223 15.6562 190.074 15.4453 191.106 15.4453C191.809 15.4453 192.457 15.5703 193.051 15.8203C193.645 16.0547 194.152 16.375 194.574 16.7812C194.996 17.1875 195.317 17.6719 195.535 18.2344C195.754 18.7969 195.848 19.3906 195.817 20.0156H201.957C201.988 18.5156 201.738 17.1641 201.207 15.9609C200.676 14.7422 199.934 13.7031 198.981 12.8438C198.012 12 196.863 11.3438 195.535 10.875C194.207 10.4062 192.762 10.1719 191.199 10.1719C189.246 10.1719 187.527 10.5078 186.043 11.1797C184.574 11.8516 183.34 12.7656 182.34 13.9219C181.34 15.0781 180.59 16.4375 180.09 18C179.59 19.5469 179.34 21.2109 179.34 22.9922V23.6953C179.34 25.4766 179.59 27.1484 180.09 28.7109C180.606 30.2578 181.363 31.6094 182.363 32.7656C183.348 33.9219 184.582 34.8359 186.067 35.5078C187.551 36.1641 189.277 36.4922 191.246 36.4922C192.699 36.4922 194.074 36.2656 195.371 35.8125C196.684 35.3438 197.832 34.7031 198.817 33.8906C199.801 33.0781 200.574 32.1094 201.137 30.9844C201.715 29.8594 201.988 28.6406 201.957 27.3281H195.817C195.848 27.9219 195.738 28.4609 195.488 28.9453C195.254 29.4297 194.918 29.8438 194.481 30.1875C194.043 30.5312 193.535 30.7969 192.957 30.9844C192.379 31.1719 191.77 31.2656 191.129 31.2656Z" fill="#31CAFF"/>
<path d="M212.366 14.1328V0H205.851V36H212.366V17.6953C212.616 17.3672 212.89 17.0703 213.187 16.8047C213.499 16.5391 213.843 16.3125 214.218 16.125C214.624 15.9062 215.077 15.7422 215.577 15.6328C216.077 15.5234 216.616 15.4688 217.194 15.4688C217.944 15.4688 218.616 15.5703 219.21 15.7734C219.804 15.9609 220.312 16.2578 220.733 16.6641C221.155 17.0703 221.476 17.6016 221.694 18.2578C221.929 18.9141 222.046 19.6953 222.046 20.6016V36H228.562V20.6484C228.562 18.7891 228.335 17.2031 227.882 15.8906C227.444 14.5625 226.827 13.4766 226.03 12.6328C225.233 11.7891 224.28 11.1719 223.171 10.7812C222.062 10.375 220.843 10.1719 219.515 10.1719C218.608 10.1719 217.749 10.3047 216.937 10.5703C216.124 10.8359 215.382 11.2109 214.71 11.6953C214.272 12.0078 213.851 12.375 213.444 12.7969C213.054 13.2031 212.694 13.6484 212.366 14.1328Z" fill="#31CAFF"/>
<path d="M7.00781 5.55469C6.83594 5.11719 6.75 4.64844 6.75 4.14844C6.75 3.64844 6.83594 3.1875 7.00781 2.76562C7.19531 2.32812 7.45312 1.95312 7.78125 1.64062C8.10938 1.34375 8.5 1.10938 8.95312 0.9375C9.42188 0.765625 9.9375 0.679688 10.5 0.679688C11.6562 0.679688 12.5703 1.00781 13.2422 1.66406C13.9297 2.30469 14.2734 3.13281 14.2734 4.14844C14.2734 5.16406 13.9297 6 13.2422 6.65625C12.5703 7.29688 11.6562 7.61719 10.5 7.61719C9.9375 7.61719 9.42188 7.53125 8.95312 7.35938C8.5 7.1875 8.10938 6.94531 7.78125 6.63281C7.45312 6.33594 7.19531 5.97656 7.00781 5.55469Z" fill="#31CAFF"/>
</svg>
