<svg width="102" height="24" viewBox="0 0 102 24" fill="none" xmlns="http://www.w3.org/2000/svg">
<path d="M5.47773 22.1618H1.7854V1.73608H9.87438C14.384 1.73608 17.2042 3.95495 17.2042 8.25133C17.2042 12.4902 14.3857 14.7662 9.87438 14.7662H5.47773V22.1618ZM9.67701 11.5499C12.2138 11.5499 13.5671 10.3549 13.5671 8.24967C13.5671 6.11554 12.2158 4.94906 9.67701 4.94906H5.47773V11.5499H9.67701Z" fill="black"/>
<path d="M25.0942 22.4748C20.8384 22.4748 17.8225 19.3453 17.8225 14.708C17.8225 10.0706 20.8384 6.94067 25.0942 6.94067C29.3499 6.94067 32.3662 10.0706 32.3662 14.708C32.3662 19.3453 29.3499 22.4748 25.0942 22.4748ZM25.0942 19.4875C27.4053 19.4875 28.843 17.6952 28.843 14.708C28.843 11.7207 27.4053 9.92838 25.0942 9.92838C22.783 9.92838 21.3457 11.7207 21.3457 14.708C21.3457 17.6952 22.783 19.4875 25.0942 19.4875Z" fill="black"/>
<path d="M37.7774 1.73413H34.2825V22.1619H37.7774V1.73413Z" fill="black"/>
<path d="M48.7133 20.9099C47.8124 21.8775 46.4021 22.4182 44.7412 22.4182C41.8384 22.4182 39.6677 20.6821 39.6677 17.9796C39.6677 15.1916 41.7819 13.9114 44.6286 13.3137L48.6588 12.4602V12.2043C48.6588 10.8402 47.9545 9.98501 46.2068 9.98501C44.6565 9.98501 43.7831 10.6964 43.4166 12.0906L40.1472 11.3507C40.8515 8.81853 42.9375 6.94067 46.4042 6.94067C49.73 6.94067 52.0141 8.64781 52.0141 12.0906V18.5773C52.0141 19.8004 52.0706 21.0806 52.2397 22.1619H48.8001C48.7427 21.7471 48.7144 21.3287 48.7153 20.9099H48.7133ZM48.6588 15.1345L45.5303 15.8174C44.1495 16.1307 43.1066 16.6143 43.1066 17.8941C43.1066 19.0039 43.9256 19.6012 45.3334 19.6012C47.0532 19.6012 48.6588 18.6918 48.6588 16.9272V15.1345Z" fill="black"/>
<path d="M63.1159 10.7249C62.7236 10.67 62.3281 10.6414 61.9321 10.6393C59.7901 10.6393 58.2115 12.0034 58.2115 14.3095V22.1631H54.7166V7.22546H58.2115V9.61504C58.8597 7.99346 60.3253 7.13989 62.2138 7.13989C62.5149 7.142 62.8157 7.16104 63.1147 7.19694L63.1159 10.7249Z" fill="black"/>
<path d="M71.0924 22.4748C66.8366 22.4748 63.8203 19.3453 63.8203 14.708C63.8203 10.0706 66.8366 6.94067 71.0924 6.94067C75.3481 6.94067 78.364 10.0706 78.364 14.708C78.364 19.3453 75.3481 22.4748 71.0924 22.4748ZM71.0924 19.4875C73.4035 19.4875 74.8408 17.6952 74.8408 14.708C74.8408 11.7207 73.4035 9.92838 71.0924 9.92838C68.7812 9.92838 67.3435 11.7207 67.3435 14.708C67.3435 17.6952 68.7812 19.4875 71.0924 19.4875Z" fill="black"/>
<path d="M80.2805 1.73608H83.8881V5.3496H80.2805V1.73608ZM83.832 22.1639H80.337V7.22539H83.832V22.1639Z" fill="black"/>
<path d="M96.7404 1.73608H100.235V22.1639H96.7404V20.3452C95.754 21.8245 94.2602 22.4789 92.4564 22.4789C88.2567 22.4789 85.8047 18.9509 85.8047 14.712C85.8047 10.4731 88.2567 6.94472 92.4564 6.94472C94.2602 6.94472 95.754 7.59906 96.7404 9.07886V1.73608ZM93.1328 10.0444C90.7373 10.0444 89.3279 11.9504 89.3279 14.7104C89.3279 17.4984 90.7373 19.3763 93.1328 19.3763C95.2466 19.3763 96.8248 17.8398 96.8248 15.1655V14.2809C96.8248 11.5499 95.2466 10.042 93.1328 10.042" fill="black"/>
</svg>
